title
…
<br>

***

##### Citation:
_National Ecological Observatory Network. 2018. Data Products: DP1.10098.001.  Provisional data downloaded from http://data.neonscience.org on 2018-05-04. Battelle, Boulder, CO, USA_

---

## vst_perplotperyear.csv

Plot level data

```
## # A tibble: 231 x 17
##    uid   namedLocation date       domainID siteID plotID plotType nlcdClass decimalLatitude
##    <chr> <chr>         <date>     <chr>    <chr>  <chr>  <chr>    <chr>               <dbl>
##  1 13b4… BART_001.bas… 2016-10-19 D01      BART   BART_… distrib… mixedFor…            44.0
##  2 93ee… BART_002.bas… 2016-09-27 D01      BART   BART_… distrib… deciduou…            44.0
##  3 4b5f… BART_003.bas… 2016-09-28 D01      BART   BART_… distrib… deciduou…            44.1
##  4 dbbd… BART_004.bas… 2016-10-19 D01      BART   BART_… distrib… mixedFor…            44.0
##  5 f254… BART_005.bas… 2016-09-23 D01      BART   BART_… distrib… mixedFor…            44.1
##  6 6659… BART_006.bas… 2016-09-21 D01      BART   BART_… distrib… deciduou…            44.1
##  7 7300… BART_007.bas… 2016-10-18 D01      BART   BART_… distrib… mixedFor…            44.0
##  8 07c9… BART_010.bas… 2016-09-19 D01      BART   BART_… distrib… deciduou…            44.1
##  9 5574… BART_011.bas… 2016-10-17 D01      BART   BART_… distrib… mixedFor…            44.1
## 10 afc5… BART_012.bas… 2016-10-18 D01      BART   BART_… distrib… deciduou…            44.0
## # … with 221 more rows, and 8 more variables: decimalLongitude <dbl>, geodeticDatum <chr>,
## #   easting <dbl>, northing <dbl>, utmZone <chr>, elevation <dbl>, elevationUncertainty <dbl>,
## #   eventID <chr>
```

---

## vst_mappingandtagging.csv

Individual level data

```
## # A tibble: 8,000 x 14
##    uid   namedLocation date       eventID domainID siteID plotID pointID stemDistance stemAzimuth
##    <chr> <chr>         <date>     <chr>   <chr>    <chr>  <chr>    <dbl>        <dbl>       <dbl>
##  1 f6df… BART_013.bas… 2014-09-15 vst_BA… D01      BART   BART_…      57         22.3       138. 
##  2 8c27… BART_013.bas… 2014-09-15 vst_BA… D01      BART   BART_…      49          5.1       134. 
##  3 8382… BART_013.bas… 2014-09-15 vst_BA… D01      BART   BART_…      49          4.6       140. 
##  4 1431… BART_013.bas… 2014-09-15 vst_BA… D01      BART   BART_…      57         21.6       127. 
##  5 75b3… BART_004.bas… 2014-09-11 vst_BA… D01      BART   BART_…      41          3           2.3
##  6 4ab2… BART_007.bas… 2014-09-04 vst_BA… D01      BART   BART_…      41          6.1       356. 
##  7 4e4a… BART_007.bas… 2014-09-04 vst_BA… D01      BART   BART_…      49          5.3       108. 
##  8 8a7e… BART_007.bas… 2014-09-04 vst_BA… D01      BART   BART_…      49          3         124. 
##  9 9119… BART_007.bas… 2014-09-04 vst_BA… D01      BART   BART_…      41          9.5       197. 
## 10 935e… BART_007.bas… 2014-09-04 vst_BA… D01      BART   BART_…      41          5          30.9
## # … with 7,990 more rows, and 4 more variables: individualID <chr>, taxonID <chr>,
## #   scientificName <chr>, taxonRank <chr>
```
…
