Creating metadata with dataspice | Reproducible Research Data and Project Management in R
…
## 
## ── Column specification ────────────────────────────────────────────────────────
## cols(
##   table = col_character(),
##   fieldName = col_character(),
##   description = col_character(),
##   dataType = col_character(),
##   units = col_character(),
##   downloadPkg = col_character()
## )

variables

## # A tibble: 117 x 6
##    table    fieldName   description                   dataType units downloadPkg
##    <chr>    <chr>       <chr>                         <chr>    <chr> <chr>      
##  1 vst_shr… uid         Unique ID within NEON databa… string   <NA>  basic      
##  2 vst_shr… namedLocat… Name of the measurement loca… string   <NA>  basic      
##  3 vst_shr… date        Date or date and time of mea… dateTime <NA>  basic      
##  4 vst_shr… eventID     An identifier for the set of… string   <NA>  basic      
##  5 vst_shr… domainID    Unique identifier of the NEO… string   <NA>  basic      
##  6 vst_shr… siteID      NEON site code                string   <NA>  basic      
##  7 vst_shr… plotID      Plot identifier (NEON site c… string   <NA>  basic      
##  8 vst_shr… subplotID   Identifier for the NEON subp… string   <NA>  basic      
##  9 vst_shr… nestedSubp… Numeric identifier for neste… string   <NA>  basic      
## 10 vst_shr… groupID     Identifier for a group of in… string   <NA>  basic      
## # … with 107 more rows
…
