Merging data | Reproducible Research Data and Project Management in R
…
## [1] "uid"          "eventID"      "individualID"

Solution

Default left_join

Because we want to match the rest of the tables to our individual data, we use left_join() and supply individual as the first argument and maptag as the second.

individual %>%
  dplyr::left_join(maptag) 

## Joining, by = c("uid", "eventID", "individualID")

## # A tibble: 14,961 x 18
##    uid     namedLocation  date       eventID domainID siteID plotID individualID
##    <chr>   <chr>          <date>     <chr>   <chr>    <chr>  <chr>  <chr>       
##  1 a36a16… BART_037.base… 2015-08-26 vst_BA… D01      BART   BART_… NEON.PLA.D0…
##  2 68dc7a… BART_037.base… 2015-08-26 vst_BA… D01      BART   BART_… NEON.PLA.D0…
##  3 a8951a… BART_044.base… 2015-08-26 vst_BA… D01      BART   BART_… NEON.PLA.D0…
##  4 eb348e… BART_044.base… 2015-08-26 vst_BA… D01      BART   BART_… NEON.PLA.D0…
##  5 2a4478… BART_044.base… 2015-08-26 vst_BA… D01      BART   BART_… NEON.PLA.D0…
##  6 e48520… BART_044.base… 2015-08-26 vst_BA… D01      BART   BART_… NEON.PLA.D0…
##  7 280c90… BART_044.base… 2015-08-26 vst_BA… D01      BART   BART_… NEON.PLA.D0…
##  8 0e5060… BART_044.base… 2015-08-26 vst_BA… D01      BART   BART_… NEON.PLA.D0…
##  9 4918ca… BART_044.base… 2015-08-26 vst_BA… D01      BART   BART_… NEON.PLA.D0…
## 10 ef16cb… BART_044.base… 2015-08-26 vst_BA… D01      BART   BART_… NEON.PLA.D0…
## # … with 14,951 more rows, and 10 more variables: growthForm <chr>,
## #   stemDiameter <dbl>, measurementHeight <dbl>, height <dbl>, pointID <dbl>,
## #   stemDistance <dbl>, stemAzimuth <dbl>, taxonID <chr>, scientificName <chr>,
## #   taxonRank <chr>
…
By including this check, I don’t have to guess or manually check whether the merge has been successful. The code will just error if it hasn’t 🙌.

Debugging hidden mismatches:

I’ve shown the most minimal implementation in which dplyr does a lot of the guessing for us and tries to join on all matched columns. But often, that can generate table mismatches

We know that the only column we are interested in matching on is individualID. We want to get the mapping associated with each individual, regardless of when the mapping was collected. We can be specific about which variables we want to join on through argument by.

individual %>%
  dplyr::left_join(maptag, 
                   by = "individualID") %>%
  assertr::assert(assertr::not_na, stemDistance, stemAzimuth, pointID)

## # A tibble: 14,961 x 20
##    uid.x  namedLocation date       eventID.x domainID siteID plotID individualID
##    <chr>  <chr>         <date>     <chr>     <chr>    <chr>  <chr>  <chr>       
##  1 a36a1… BART_037.bas… 2015-08-26 vst_BART… D01      BART   BART_… NEON.PLA.D0…
##  2 68dc7… BART_037.bas… 2015-08-26 vst_BART… D01      BART   BART_… NEON.PLA.D0…
##  3 a8951… BART_044.bas… 2015-08-26 vst_BART… D01      BART   BART_… NEON.PLA.D0…
##  4 eb348… BART_044.bas… 2015-08-26 vst_BART… D01      BART   BART_… NEON.PLA.D0…
##  5 2a447… BART_044.bas… 2015-08-26 vst_BART… D01      BART   BART_… NEON.PLA.D0…
##  6 e4852… BART_044.bas… 2015-08-26 vst_BART… D01      BART   BART_… NEON.PLA.D0…
##  7 280c9… BART_044.bas… 2015-08-26 vst_BART… D01      BART   BART_… NEON.PLA.D0…
##  8 0e506… BART_044.bas… 2015-08-26 vst_BART… D01      BART   BART_… NEON.PLA.D0…
##  9 4918c… BART_044.bas… 2015-08-26 vst_BART… D01      BART   BART_… NEON.PLA.D0…
## 10 ef16c… BART_044.bas… 2015-08-26 vst_BART… D01      BART   BART_… NEON.PLA.D0…
## # … with 14,951 more rows, and 12 more variables: growthForm <chr>,
## #   stemDiameter <dbl>, measurementHeight <dbl>, height <dbl>, uid.y <chr>,
## #   eventID.y <chr>, pointID <dbl>, stemDistance <dbl>, stemAzimuth <dbl>,
## #   taxonID <chr>, scientificName <chr>, taxonRank <chr>
…
That’s because those columns are also present in both our tables but we are not explicitly joining them. They are retained and each suffixed with .x & .y by default, to make them unique.

So, what about these duplicate columns. Do we need them?

With respect to eventID, we’re not really interested in the mapping eventIDs so we can just drop that column from maptag.

maptag <- select(maptag, -eventID)

individual %>%
  dplyr::left_join(maptag, 
                   by = "individualID") %>%
  assertr::assert(assertr::not_na, stemDistance, stemAzimuth, pointID)

## # A tibble: 14,961 x 19
##    uid.x   namedLocation  date       eventID domainID siteID plotID individualID
##    <chr>   <chr>          <date>     <chr>   <chr>    <chr>  <chr>  <chr>       
##  1 a36a16… BART_037.base… 2015-08-26 vst_BA… D01      BART   BART_… NEON.PLA.D0…
##  2 68dc7a… BART_037.base… 2015-08-26 vst_BA… D01      BART   BART_… NEON.PLA.D0…
##  3 a8951a… BART_044.base… 2015-08-26 vst_BA… D01      BART   BART_… NEON.PLA.D0…
##  4 eb348e… BART_044.base… 2015-08-26 vst_BA… D01      BART   BART_… NEON.PLA.D0…
##  5 2a4478… BART_044.base… 2015-08-26 vst_BA… D01      BART   BART_… NEON.PLA.D0…
##  6 e48520… BART_044.base… 2015-08-26 vst_BA… D01      BART   BART_… NEON.PLA.D0…
##  7 280c90… BART_044.base… 2015-08-26 vst_BA… D01      BART   BART_… NEON.PLA.D0…
##  8 0e5060… BART_044.base… 2015-08-26 vst_BA… D01      BART   BART_… NEON.PLA.D0…
##  9 4918ca… BART_044.base… 2015-08-26 vst_BA… D01      BART   BART_… NEON.PLA.D0…
## 10 ef16cb… BART_044.base… 2015-08-26 vst_BA… D01      BART   BART_… NEON.PLA.D0…
## # … with 14,951 more rows, and 11 more variables: growthForm <chr>,
## #   stemDiameter <dbl>, measurementHeight <dbl>, height <dbl>, uid.y <chr>,
## #   pointID <dbl>, stemDistance <dbl>, stemAzimuth <dbl>, taxonID <chr>,
## #   scientificName <chr>, taxonRank <chr>

On the other hand, "uid contains unique identifiers for each observation in their respective table and could be useful metadata to store, enabling us to trace the provenance of individual values to the original data. So rather than remove them, let’s retain both uid, one for each table.

We can give more informative suffixes using argument suffix. In our case, I want the individual column to stay as uid and the maptag column to get the suffix _map.

individual %>%
  dplyr::left_join(maptag, 
                   by = "individualID",
                   suffix = c("", "_map")) %>%
  assertr::assert(assertr::not_na, stemDistance, stemAzimuth, pointID)

## # A tibble: 14,961 x 19
##    uid     namedLocation  date       eventID domainID siteID plotID individualID
##    <chr>   <chr>          <date>     <chr>   <chr>    <chr>  <chr>  <chr>       
##  1 a36a16… BART_037.base… 2015-08-26 vst_BA… D01      BART   BART_… NEON.PLA.D0…
##  2 68dc7a… BART_037.base… 2015-08-26 vst_BA… D01      BART   BART_… NEON.PLA.D0…
##  3 a8951a… BART_044.base… 2015-08-26 vst_BA… D01      BART   BART_… NEON.PLA.D0…
##  4 eb348e… BART_044.base… 2015-08-26 vst_BA… D01      BART   BART_… NEON.PLA.D0…
##  5 2a4478… BART_044.base… 2015-08-26 vst_BA… D01      BART   BART_… NEON.PLA.D0…
##  6 e48520… BART_044.base… 2015-08-26 vst_BA… D01      BART   BART_… NEON.PLA.D0…
##  7 280c90… BART_044.base… 2015-08-26 vst_BA… D01      BART   BART_… NEON.PLA.D0…
##  8 0e5060… BART_044.base… 2015-08-26 vst_BA… D01      BART   BART_… NEON.PLA.D0…
##  9 4918ca… BART_044.base… 2015-08-26 vst_BA… D01      BART   BART_… NEON.PLA.D0…
## 10 ef16cb… BART_044.base… 2015-08-26 vst_BA… D01      BART   BART_… NEON.PLA.D0…
## # … with 14,951 more rows, and 11 more variables: growthForm <chr>,
## #   stemDiameter <dbl>, measurementHeight <dbl>, height <dbl>, uid_map <chr>,
## #   pointID <dbl>, stemDistance <dbl>, stemAzimuth <dbl>, taxonID <chr>,
## #   scientificName <chr>, taxonRank <chr>
…
Let’s also move our validation test to the end and add the new columns we want to check to it, i.e. stemDistance, stemAzimuth, pointID.

perplot <- perplot %>% select(-eventID)

individual %>%
  dplyr::left_join(maptag, 
                   by = "individualID",
                   suffix = c("", "_map")) %>%
  dplyr::left_join(perplot, by = c("plotID"), 
                   suffix = c("", "_ppl")) %>%
  assertr::assert(assertr::not_na,  decimalLatitude,
                  decimalLongitude, plotID, stemDistance, stemAzimuth, pointID)

## # A tibble: 14,961 x 30
##    uid     namedLocation  date       eventID domainID siteID plotID individualID
##    <chr>   <chr>          <date>     <chr>   <chr>    <chr>  <chr>  <chr>       
##  1 a36a16… BART_037.base… 2015-08-26 vst_BA… D01      BART   BART_… NEON.PLA.D0…
##  2 68dc7a… BART_037.base… 2015-08-26 vst_BA… D01      BART   BART_… NEON.PLA.D0…
##  3 a8951a… BART_044.base… 2015-08-26 vst_BA… D01      BART   BART_… NEON.PLA.D0…
##  4 eb348e… BART_044.base… 2015-08-26 vst_BA… D01      BART   BART_… NEON.PLA.D0…
##  5 2a4478… BART_044.base… 2015-08-26 vst_BA… D01      BART   BART_… NEON.PLA.D0…
##  6 e48520… BART_044.base… 2015-08-26 vst_BA… D01      BART   BART_… NEON.PLA.D0…
##  7 280c90… BART_044.base… 2015-08-26 vst_BA… D01      BART   BART_… NEON.PLA.D0…
##  8 0e5060… BART_044.base… 2015-08-26 vst_BA… D01      BART   BART_… NEON.PLA.D0…
##  9 4918ca… BART_044.base… 2015-08-26 vst_BA… D01      BART   BART_… NEON.PLA.D0…
## 10 ef16cb… BART_044.base… 2015-08-26 vst_BA… D01      BART   BART_… NEON.PLA.D0…
## # … with 14,951 more rows, and 22 more variables: growthForm <chr>,
## #   stemDiameter <dbl>, measurementHeight <dbl>, height <dbl>, uid_map <chr>,
## #   pointID <dbl>, stemDistance <dbl>, stemAzimuth <dbl>, taxonID <chr>,
## #   scientificName <chr>, taxonRank <chr>, uid_ppl <chr>, plotType <chr>,
## #   nlcdClass <chr>, decimalLatitude <dbl>, decimalLongitude <dbl>,
## #   geodeticDatum <chr>, easting <dbl>, northing <dbl>, utmZone <chr>,
## #   elevation <dbl>, elevationUncertainty <dbl>
…
