Iteration | Reproducible Research Data and Project Management in R
…
Now we’re ready to write our for loop.

for(i in seq_along(individual_paths)){
  indiv_df_list[[i]] <- readr::read_csv(individual_paths[[i]])
}

At each step of the iteration, the file specified in the ith element of individual_paths is read in and assigned to th ith element of our output list.

We can extract individual tibbles using [[ sub-setting to inspect:

indiv_df_list[[1]]

## # A tibble: 376 x 12
##    uid     namedLocation  date       eventID domainID siteID plotID individualID
##    <chr>   <chr>          <date>     <chr>   <chr>    <chr>  <chr>  <chr>       
##  1 a36a16… BART_037.base… 2015-08-26 vst_BA… D01      BART   BART_… NEON.PLA.D0…
##  2 68dc7a… BART_037.base… 2015-08-26 vst_BA… D01      BART   BART_… NEON.PLA.D0…
##  3 a8951a… BART_044.base… 2015-08-26 vst_BA… D01      BART   BART_… NEON.PLA.D0…
##  4 eb348e… BART_044.base… 2015-08-26 vst_BA… D01      BART   BART_… NEON.PLA.D0…
##  5 2a4478… BART_044.base… 2015-08-26 vst_BA… D01      BART   BART_… NEON.PLA.D0…
##  6 e48520… BART_044.base… 2015-08-26 vst_BA… D01      BART   BART_… NEON.PLA.D0…
##  7 280c90… BART_044.base… 2015-08-26 vst_BA… D01      BART   BART_… NEON.PLA.D0…
##  8 0e5060… BART_044.base… 2015-08-26 vst_BA… D01      BART   BART_… NEON.PLA.D0…
##  9 4918ca… BART_044.base… 2015-08-26 vst_BA… D01      BART   BART_… NEON.PLA.D0…
## 10 ef16cb… BART_044.base… 2015-08-26 vst_BA… D01      BART   BART_… NEON.PLA.D0…
## # … with 366 more rows, and 4 more variables: growthForm <chr>,
## #   stemDiameter <dbl>, measurementHeight <dbl>, height <dbl>

indiv_df_list[[2]]

## # A tibble: 714 x 12
##    uid     namedLocation  date       eventID domainID siteID plotID individualID
##    <chr>   <chr>          <date>     <chr>   <chr>    <chr>  <chr>  <chr>       
##  1 fb75a8… BART_036.base… 2015-09-01 vst_BA… D01      BART   BART_… NEON.PLA.D0…
##  2 30a7c7… BART_046.base… 2015-09-01 vst_BA… D01      BART   BART_… NEON.PLA.D0…
##  3 789d03… BART_072.base… 2015-09-01 vst_BA… D01      BART   BART_… NEON.PLA.D0…
##  4 0e4fb3… BART_072.base… 2015-09-01 vst_BA… D01      BART   BART_… NEON.PLA.D0…
##  5 cb0e45… BART_036.base… 2015-09-01 vst_BA… D01      BART   BART_… NEON.PLA.D0…
##  6 5fc5cf… BART_072.base… 2015-09-01 vst_BA… D01      BART   BART_… NEON.PLA.D0…
##  7 5d15fa… BART_046.base… 2015-09-01 vst_BA… D01      BART   BART_… NEON.PLA.D0…
##  8 d27a1b… BART_036.base… 2015-09-01 vst_BA… D01      BART   BART_… NEON.PLA.D0…
##  9 d5f9ab… BART_036.base… 2015-09-01 vst_BA… D01      BART   BART_… NEON.PLA.D0…
## 10 e52c3b… BART_036.base… 2015-09-01 vst_BA… D01      BART   BART_… NEON.PLA.D0…
## # … with 704 more rows, and 4 more variables: growthForm <chr>,
## #   stemDiameter <dbl>, measurementHeight <dbl>, height <dbl>
…
Hmm, that doesn’t seem to have done what we want. That’s because rbind expects multiple tibbles as inputs and we’re giving it a single list. We somehow want to extract the contents of each element of indiv_df_list and pass them all to rbind.

For this we can use do.call.do.call takes a function or the name of a function we want to execute as it’s first argument, what. The second argument of do.call, args is a list of arguments we want to pass to the function specified in what. When do.call is executed, it extracts the elements of args and passes them as arguments to what.

do.call(what = "rbind", args = indiv_df_list)

## # A tibble: 14,961 x 12
##    uid     namedLocation  date       eventID domainID siteID plotID individualID
##  * <chr>   <chr>          <date>     <chr>   <chr>    <chr>  <chr>  <chr>       
##  1 a36a16… BART_037.base… 2015-08-26 vst_BA… D01      BART   BART_… NEON.PLA.D0…
##  2 68dc7a… BART_037.base… 2015-08-26 vst_BA… D01      BART   BART_… NEON.PLA.D0…
##  3 a8951a… BART_044.base… 2015-08-26 vst_BA… D01      BART   BART_… NEON.PLA.D0…
##  4 eb348e… BART_044.base… 2015-08-26 vst_BA… D01      BART   BART_… NEON.PLA.D0…
##  5 2a4478… BART_044.base… 2015-08-26 vst_BA… D01      BART   BART_… NEON.PLA.D0…
##  6 e48520… BART_044.base… 2015-08-26 vst_BA… D01      BART   BART_… NEON.PLA.D0…
##  7 280c90… BART_044.base… 2015-08-26 vst_BA… D01      BART   BART_… NEON.PLA.D0…
##  8 0e5060… BART_044.base… 2015-08-26 vst_BA… D01      BART   BART_… NEON.PLA.D0…
##  9 4918ca… BART_044.base… 2015-08-26 vst_BA… D01      BART   BART_… NEON.PLA.D0…
## 10 ef16cb… BART_044.base… 2015-08-26 vst_BA… D01      BART   BART_… NEON.PLA.D0…
## # … with 14,951 more rows, and 4 more variables: growthForm <chr>,
## #   stemDiameter <dbl>, measurementHeight <dbl>, height <dbl>

Success!

Tidyverse

There are also ways to do this using the tidyverse.

purrr::reduce

reduce from package purrr combines the elements of a vector or list into a single object according to the function supplied to .f.

purrr::reduce(indiv_df_list, .f = rbind)

## # A tibble: 14,961 x 12
##    uid     namedLocation  date       eventID domainID siteID plotID individualID
##    <chr>   <chr>          <date>     <chr>   <chr>    <chr>  <chr>  <chr>       
##  1 a36a16… BART_037.base… 2015-08-26 vst_BA… D01      BART   BART_… NEON.PLA.D0…
##  2 68dc7a… BART_037.base… 2015-08-26 vst_BA… D01      BART   BART_… NEON.PLA.D0…
##  3 a8951a… BART_044.base… 2015-08-26 vst_BA… D01      BART   BART_… NEON.PLA.D0…
##  4 eb348e… BART_044.base… 2015-08-26 vst_BA… D01      BART   BART_… NEON.PLA.D0…
##  5 2a4478… BART_044.base… 2015-08-26 vst_BA… D01      BART   BART_… NEON.PLA.D0…
##  6 e48520… BART_044.base… 2015-08-26 vst_BA… D01      BART   BART_… NEON.PLA.D0…
##  7 280c90… BART_044.base… 2015-08-26 vst_BA… D01      BART   BART_… NEON.PLA.D0…
##  8 0e5060… BART_044.base… 2015-08-26 vst_BA… D01      BART   BART_… NEON.PLA.D0…
##  9 4918ca… BART_044.base… 2015-08-26 vst_BA… D01      BART   BART_… NEON.PLA.D0…
## 10 ef16cb… BART_044.base… 2015-08-26 vst_BA… D01      BART   BART_… NEON.PLA.D0…
## # … with 14,951 more rows, and 4 more variables: growthForm <chr>,
## #   stemDiameter <dbl>, measurementHeight <dbl>, height <dbl>

dplyr::bind_rows

bind_rows offers a shortcut to reducing a list of tibbles.

dplyr::bind_rows(indiv_df_list)

## # A tibble: 14,961 x 12
##    uid     namedLocation  date       eventID domainID siteID plotID individualID
##    <chr>   <chr>          <date>     <chr>   <chr>    <chr>  <chr>  <chr>       
##  1 a36a16… BART_037.base… 2015-08-26 vst_BA… D01      BART   BART_… NEON.PLA.D0…
##  2 68dc7a… BART_037.base… 2015-08-26 vst_BA… D01      BART   BART_… NEON.PLA.D0…
##  3 a8951a… BART_044.base… 2015-08-26 vst_BA… D01      BART   BART_… NEON.PLA.D0…
##  4 eb348e… BART_044.base… 2015-08-26 vst_BA… D01      BART   BART_… NEON.PLA.D0…
##  5 2a4478… BART_044.base… 2015-08-26 vst_BA… D01      BART   BART_… NEON.PLA.D0…
##  6 e48520… BART_044.base… 2015-08-26 vst_BA… D01      BART   BART_… NEON.PLA.D0…
##  7 280c90… BART_044.base… 2015-08-26 vst_BA… D01      BART   BART_… NEON.PLA.D0…
##  8 0e5060… BART_044.base… 2015-08-26 vst_BA… D01      BART   BART_… NEON.PLA.D0…
##  9 4918ca… BART_044.base… 2015-08-26 vst_BA… D01      BART   BART_… NEON.PLA.D0…
## 10 ef16cb… BART_044.base… 2015-08-26 vst_BA… D01      BART   BART_… NEON.PLA.D0…
## # … with 14,951 more rows, and 4 more variables: growthForm <chr>,
## #   stemDiameter <dbl>, measurementHeight <dbl>, height <dbl>
…
## [1] "list"

We would therefore need to combine them together in another step.

However, one of the great things about purrr functions is that you can specify what you expect the output of the mapped function to be. THere are functions that take advantage of that knowledge and bind or format the outputs appropriately.

Because we know the output of read_csv() is a tibble, we can use map_df() instead of map().

individual <- purrr::map_df(individual_paths,
           ~readr::read_csv(.x))

individual

## # A tibble: 14,961 x 12
##    uid     namedLocation  date       eventID domainID siteID plotID individualID
##    <chr>   <chr>          <date>     <chr>   <chr>    <chr>  <chr>  <chr>       
##  1 a36a16… BART_037.base… 2015-08-26 vst_BA… D01      BART   BART_… NEON.PLA.D0…
##  2 68dc7a… BART_037.base… 2015-08-26 vst_BA… D01      BART   BART_… NEON.PLA.D0…
##  3 a8951a… BART_044.base… 2015-08-26 vst_BA… D01      BART   BART_… NEON.PLA.D0…
##  4 eb348e… BART_044.base… 2015-08-26 vst_BA… D01      BART   BART_… NEON.PLA.D0…
##  5 2a4478… BART_044.base… 2015-08-26 vst_BA… D01      BART   BART_… NEON.PLA.D0…
##  6 e48520… BART_044.base… 2015-08-26 vst_BA… D01      BART   BART_… NEON.PLA.D0…
##  7 280c90… BART_044.base… 2015-08-26 vst_BA… D01      BART   BART_… NEON.PLA.D0…
##  8 0e5060… BART_044.base… 2015-08-26 vst_BA… D01      BART   BART_… NEON.PLA.D0…
##  9 4918ca… BART_044.base… 2015-08-26 vst_BA… D01      BART   BART_… NEON.PLA.D0…
## 10 ef16cb… BART_044.base… 2015-08-26 vst_BA… D01      BART   BART_… NEON.PLA.D0…
## # … with 14,951 more rows, and 4 more variables: growthForm <chr>,
## #   stemDiameter <dbl>, measurementHeight <dbl>, height <dbl>
…
While the above code is elegant, it might not be the most efficient. read_csv calls readr function type_convert() to determine the data type for each column when it reads a file in, which is relatively expensive.

The elegant code above mean that type_convert() is for every file that is loaded, ie 67 times.

A more efficent way of implementing this to set all columns as character on-read and then run type_convert ourselves, only once, and only after our data have been combined into a single tibble.

We can set all columns to character by default by providing column formating function readr::cols(.default = "c")) as the read_csv col_types argument.

individual <- purrr::map_df(individual_paths,
           ~readr::read_csv(.x, col_types = readr::cols(.default = "c"))) %>%
            readr::type_convert()
  
individual  

## # A tibble: 14,961 x 12
##    uid     namedLocation  date       eventID domainID siteID plotID individualID
##    <chr>   <chr>          <date>     <chr>   <chr>    <chr>  <chr>  <chr>       
##  1 a36a16… BART_037.base… 2015-08-26 vst_BA… D01      BART   BART_… NEON.PLA.D0…
##  2 68dc7a… BART_037.base… 2015-08-26 vst_BA… D01      BART   BART_… NEON.PLA.D0…
##  3 a8951a… BART_044.base… 2015-08-26 vst_BA… D01      BART   BART_… NEON.PLA.D0…
##  4 eb348e… BART_044.base… 2015-08-26 vst_BA… D01      BART   BART_… NEON.PLA.D0…
##  5 2a4478… BART_044.base… 2015-08-26 vst_BA… D01      BART   BART_… NEON.PLA.D0…
##  6 e48520… BART_044.base… 2015-08-26 vst_BA… D01      BART   BART_… NEON.PLA.D0…
##  7 280c90… BART_044.base… 2015-08-26 vst_BA… D01      BART   BART_… NEON.PLA.D0…
##  8 0e5060… BART_044.base… 2015-08-26 vst_BA… D01      BART   BART_… NEON.PLA.D0…
##  9 4918ca… BART_044.base… 2015-08-26 vst_BA… D01      BART   BART_… NEON.PLA.D0…
## 10 ef16cb… BART_044.base… 2015-08-26 vst_BA… D01      BART   BART_… NEON.PLA.D0…
## # … with 14,951 more rows, and 4 more variables: growthForm <chr>,
## #   stemDiameter <dbl>, measurementHeight <dbl>, height <dbl>
…
