Literate Programming in rmarkdown | Reproducible Research Data and Project Management in R
…
Create some additional chunks and present statistical summaries (eg using summary()).

Add some simple markdown notes about what the code has been doing.

See if you can include the number of rows and columns in an inline description of the dataset (hint: use nrow() & ncol().

Displaying data

There are many ways you can display data and data properties in an .Rmd.

printing tibbless

tibble::as_tibble(airquality)

## # A tibble: 153 x 6
##    Ozone Solar.R  Wind  Temp Month   Day
##    <int>   <int> <dbl> <int> <int> <int>
##  1    41     190   7.4    67     5     1
##  2    36     118   8      72     5     2
##  3    12     149  12.6    74     5     3
##  4    18     313  11.5    62     5     4
##  5    NA      NA  14.3    56     5     5
##  6    28      NA  14.9    66     5     6
##  7    23     299   8.6    65     5     7
##  8    19      99  13.8    59     5     8
##  9     8      19  20.1    61     5     9
## 10    NA     194   8.6    69     5    10
## # â€¦ with 143 more rows
…
