Paths and Project structure | Reproducible Research Data and Project Management in R
…
indiv_df

## # A tibble: 376 x 12
##    uid     namedLocation  date       eventID domainID siteID plotID individualID
##    <chr>   <chr>          <date>     <chr>   <chr>    <chr>  <chr>  <chr>       
##  1 a36a16… BART_037.base… 2015-08-26 vst_BA… D01      BART   BART_… NEON.PLA.D0…
##  2 68dc7a… BART_037.base… 2015-08-26 vst_BA… D01      BART   BART_… NEON.PLA.D0…
##  3 a8951a… BART_044.base… 2015-08-26 vst_BA… D01      BART   BART_… NEON.PLA.D0…
##  4 eb348e… BART_044.base… 2015-08-26 vst_BA… D01      BART   BART_… NEON.PLA.D0…
##  5 2a4478… BART_044.base… 2015-08-26 vst_BA… D01      BART   BART_… NEON.PLA.D0…
##  6 e48520… BART_044.base… 2015-08-26 vst_BA… D01      BART   BART_… NEON.PLA.D0…
##  7 280c90… BART_044.base… 2015-08-26 vst_BA… D01      BART   BART_… NEON.PLA.D0…
##  8 0e5060… BART_044.base… 2015-08-26 vst_BA… D01      BART   BART_… NEON.PLA.D0…
##  9 4918ca… BART_044.base… 2015-08-26 vst_BA… D01      BART   BART_… NEON.PLA.D0…
## 10 ef16cb… BART_044.base… 2015-08-26 vst_BA… D01      BART   BART_… NEON.PLA.D0…
## # … with 366 more rows, and 4 more variables: growthForm <chr>,
## #   stemDiameter <dbl>, measurementHeight <dbl>, height <dbl>
…
