Plotting with ggplot2 | Reproducible Research Data and Project Management in R
…
pivot_longer() “lengthens” data, increasing the number of rows and decreasing the number of columns. We use it to stack the values of stem_diameter and height into a column called value and store the original column names which define the variable each value relates to in a new column var. The values of growth_form are duplicated and stacked.

analysis_df %>%
    tidyr::pivot_longer(cols = c(stem_diameter, height), 
                        names_to = "var",
                        values_to = "value")

## # A tibble: 27,776 x 3
##    growth_form      var           value
##    <fct>            <chr>         <dbl>
##  1 single bole tree stem_diameter  17.1
##  2 single bole tree height         15.2
##  3 single bole tree stem_diameter  13.7
##  4 single bole tree height          9.8
##  5 single bole tree stem_diameter  12.3
##  6 single bole tree height          7.7
##  7 single bole tree stem_diameter  12.1
##  8 single bole tree height         15.2
##  9 single bole tree stem_diameter  29.2
## 10 single bole tree height         16.7
## # … with 27,766 more rows
…
