The tidyverse way | Reproducible Research Data and Project Management in R
…
Never coerces characters to factors.

More robust error handling.

Creating tibbles

Coercing data.frames

You can coerce a data.frame to a tibble

tree_tbl <- tibble::as_tibble(trees)
tree_tbl

## # A tibble: 31 × 3
##    Girth Height Volume
##    <dbl>  <dbl>  <dbl>
##  1   8.3     70   10.3
##  2   8.6     65   10.3
##  3   8.8     63   10.2
##  4  10.5     72   16.4
##  5  10.7     81   18.8
##  6  10.8     83   19.7
##  7  11       66   15.6
##  8  11       75   18.2
##  9  11.1     80   22.6
## 10  11.2     75   19.9
## # … with 21 more rows
…
Selecting columns with select()

select() allows us to subset columns in tibbles using operations based on the names of the variables.

In dplyr we use unquoted column names (ie Volume rather than "Volume").

select(tree_tbl, Height, Volume)

## # A tibble: 31 × 2
##    Height Volume
##     <dbl>  <dbl>
##  1     70   10.3
##  2     65   10.3
##  3     63   10.2
##  4     72   16.4
##  5     81   18.8
##  6     83   19.7
##  7     66   15.6
##  8     75   18.2
##  9     80   22.6
## 10     75   19.9
## # … with 21 more rows

Behind the scenes, select matches any variable arguments to column names creating a vector of column indices. This is then used to subset the tibble. As such we can create ranges of variables using their names and :

select(tree_tbl, Height:Volume)

## # A tibble: 31 × 2
##    Height Volume
##     <dbl>  <dbl>
##  1     70   10.3
##  2     65   10.3
##  3     63   10.2
##  4     72   16.4
##  5     81   18.8
##  6     83   19.7
##  7     66   15.6
##  8     75   18.2
##  9     80   22.6
## 10     75   19.9
## # … with 21 more rows

There’s also a number of helper functions to make selections easier. For example, we can use one_of() to provide a character vector of column names to select.

select(tree_tbl, one_of(c("Height", "Volume")))

## # A tibble: 31 × 2
##    Height Volume
##     <dbl>  <dbl>
##  1     70   10.3
##  2     65   10.3
##  3     63   10.2
##  4     72   16.4
##  5     81   18.8
##  6     83   19.7
##  7     66   15.6
##  8     75   18.2
##  9     80   22.6
## 10     75   19.9
## # … with 21 more rows
…
