Data munging: combining tables | Reproducible Research Data & Project Management in R
…
names(maptag)

##  [1] "uid"            "namedLocation"  "date"           "eventID"       
##  [5] "domainID"       "siteID"         "plotID"         "pointID"       
##  [9] "stemDistance"   "stemAzimuth"    "individualID"   "taxonID"       
## [13] "scientificName" "taxonRank"

#dplyr::select(maptag, individualID, taxonID:taxonRank, pointID:stemAzimuth)

individual %>%
  dplyr::left_join(maptag) 

## Joining, by = c("uid", "namedLocation", "date", "eventID", "domainID", "siteID", "plotID", "individualID")

## # A tibble: 21,388 x 18
##    uid   namedLocation date       eventID domainID siteID plotID individualID
##    <chr> <chr>         <date>     <chr>   <chr>    <chr>  <chr>  <chr>       
##  1 68dc… BART_037.bas… 2015-08-26 vst_BA… D01      BART   BART_… NEON.PLA.D0…
##  2 a895… BART_044.bas… 2015-08-26 vst_BA… D01      BART   BART_… NEON.PLA.D0…
##  3 eb34… BART_044.bas… 2015-08-26 vst_BA… D01      BART   BART_… NEON.PLA.D0…
##  4 2a44… BART_044.bas… 2015-08-26 vst_BA… D01      BART   BART_… NEON.PLA.D0…
##  5 e485… BART_044.bas… 2015-08-26 vst_BA… D01      BART   BART_… NEON.PLA.D0…
##  6 280c… BART_044.bas… 2015-08-26 vst_BA… D01      BART   BART_… NEON.PLA.D0…
##  7 0e50… BART_044.bas… 2015-08-26 vst_BA… D01      BART   BART_… NEON.PLA.D0…
##  8 4918… BART_044.bas… 2015-08-26 vst_BA… D01      BART   BART_… NEON.PLA.D0…
##  9 ef16… BART_044.bas… 2015-08-26 vst_BA… D01      BART   BART_… NEON.PLA.D0…
## 10 f099… BART_044.bas… 2015-08-26 vst_BA… D01      BART   BART_… NEON.PLA.D0…
## # … with 21,378 more rows, and 10 more variables: growthForm <chr>,
## #   stemDiameter <dbl>, measurementHeight <dbl>, height <dbl>, pointID <dbl>,
## #   stemDistance <dbl>, stemAzimuth <dbl>, taxonID <chr>, scientificName <chr>,
## #   taxonRank <chr>
…
df <- individual %>%
  dplyr::left_join(maptag, by = c("namedLocation", "date", "eventID", "domainID", "siteID", "plotID", "individualID")) 

individual %>%
  dplyr::left_join(maptag, by = c("namedLocation", "domainID", "siteID", "plotID", "individualID")) %>%
  View()

individual %>%
  dplyr::left_join(dplyr::select(maptag, individualID, 
                                 taxonID:taxonRank, pointID:stemAzimuth))

## Joining, by = "individualID"

## # A tibble: 21,388 x 18
##    uid   namedLocation date       eventID domainID siteID plotID individualID
##    <chr> <chr>         <date>     <chr>   <chr>    <chr>  <chr>  <chr>       
##  1 68dc… BART_037.bas… 2015-08-26 vst_BA… D01      BART   BART_… NEON.PLA.D0…
##  2 a895… BART_044.bas… 2015-08-26 vst_BA… D01      BART   BART_… NEON.PLA.D0…
##  3 eb34… BART_044.bas… 2015-08-26 vst_BA… D01      BART   BART_… NEON.PLA.D0…
##  4 2a44… BART_044.bas… 2015-08-26 vst_BA… D01      BART   BART_… NEON.PLA.D0…
##  5 e485… BART_044.bas… 2015-08-26 vst_BA… D01      BART   BART_… NEON.PLA.D0…
##  6 280c… BART_044.bas… 2015-08-26 vst_BA… D01      BART   BART_… NEON.PLA.D0…
##  7 0e50… BART_044.bas… 2015-08-26 vst_BA… D01      BART   BART_… NEON.PLA.D0…
##  8 4918… BART_044.bas… 2015-08-26 vst_BA… D01      BART   BART_… NEON.PLA.D0…
##  9 ef16… BART_044.bas… 2015-08-26 vst_BA… D01      BART   BART_… NEON.PLA.D0…
## 10 f099… BART_044.bas… 2015-08-26 vst_BA… D01      BART   BART_… NEON.PLA.D0…
## # … with 21,378 more rows, and 10 more variables: growthForm <chr>,
## #   stemDiameter <dbl>, measurementHeight <dbl>, height <dbl>, taxonID <chr>,
## #   scientificName <chr>, taxonRank <chr>, pointID <dbl>, stemDistance <dbl>,
## #   stemAzimuth <dbl>

nrow_indiv <- nrow(individual)

individual %>%
  dplyr::left_join(dplyr::select(maptag, -uid, -date))

## Joining, by = c("namedLocation", "eventID", "domainID", "siteID", "plotID", "individualID")

## # A tibble: 21,388 x 18
##    uid   namedLocation date       eventID domainID siteID plotID individualID
##    <chr> <chr>         <date>     <chr>   <chr>    <chr>  <chr>  <chr>       
##  1 68dc… BART_037.bas… 2015-08-26 vst_BA… D01      BART   BART_… NEON.PLA.D0…
##  2 a895… BART_044.bas… 2015-08-26 vst_BA… D01      BART   BART_… NEON.PLA.D0…
##  3 eb34… BART_044.bas… 2015-08-26 vst_BA… D01      BART   BART_… NEON.PLA.D0…
##  4 2a44… BART_044.bas… 2015-08-26 vst_BA… D01      BART   BART_… NEON.PLA.D0…
##  5 e485… BART_044.bas… 2015-08-26 vst_BA… D01      BART   BART_… NEON.PLA.D0…
##  6 280c… BART_044.bas… 2015-08-26 vst_BA… D01      BART   BART_… NEON.PLA.D0…
##  7 0e50… BART_044.bas… 2015-08-26 vst_BA… D01      BART   BART_… NEON.PLA.D0…
##  8 4918… BART_044.bas… 2015-08-26 vst_BA… D01      BART   BART_… NEON.PLA.D0…
##  9 ef16… BART_044.bas… 2015-08-26 vst_BA… D01      BART   BART_… NEON.PLA.D0…
## 10 f099… BART_044.bas… 2015-08-26 vst_BA… D01      BART   BART_… NEON.PLA.D0…
## # … with 21,378 more rows, and 10 more variables: growthForm <chr>,
## #   stemDiameter <dbl>, measurementHeight <dbl>, height <dbl>, pointID <dbl>,
## #   stemDistance <dbl>, stemAzimuth <dbl>, taxonID <chr>, scientificName <chr>,
## #   taxonRank <chr>
…
