Functions | Reproducible Research Data & Project Management in R
…
Let’s move back to our individual.R script. At the top of our script, let’s add the code to source our function so it’s available during preprocessing:

source(here::here("R", "geolocation.R"))

Now we want to use data in individual to geolocate our individulas while at the same time creating new columns stemLat and stemLon

For this we use dplyr::mutate():

individual %>% dplyr::mutate(stemLat = get_stem_location(decimalLongitude, decimalLatitude, 
                                                         stemAzimuth, stemDistance)$lat, 
                             stemLon = get_stem_location(decimalLongitude, decimalLatitude, 
                                                         stemAzimuth, stemDistance)$lon)

## # A tibble: 14,961 x 32
##    uid   namedLocation date       eventID domainID siteID plotID individualID
##    <chr> <chr>         <date>     <chr>   <chr>    <chr>  <chr>  <chr>       
##  1 a36a… BART_037.bas… 2015-08-26 vst_BA… D01      BART   BART_… NEON.PLA.D0…
##  2 68dc… BART_037.bas… 2015-08-26 vst_BA… D01      BART   BART_… NEON.PLA.D0…
##  3 a895… BART_044.bas… 2015-08-26 vst_BA… D01      BART   BART_… NEON.PLA.D0…
##  4 eb34… BART_044.bas… 2015-08-26 vst_BA… D01      BART   BART_… NEON.PLA.D0…
##  5 2a44… BART_044.bas… 2015-08-26 vst_BA… D01      BART   BART_… NEON.PLA.D0…
##  6 e485… BART_044.bas… 2015-08-26 vst_BA… D01      BART   BART_… NEON.PLA.D0…
##  7 280c… BART_044.bas… 2015-08-26 vst_BA… D01      BART   BART_… NEON.PLA.D0…
##  8 0e50… BART_044.bas… 2015-08-26 vst_BA… D01      BART   BART_… NEON.PLA.D0…
##  9 4918… BART_044.bas… 2015-08-26 vst_BA… D01      BART   BART_… NEON.PLA.D0…
## 10 ef16… BART_044.bas… 2015-08-26 vst_BA… D01      BART   BART_… NEON.PLA.D0…
## # … with 14,951 more rows, and 24 more variables: growthForm <chr>,
## #   stemDiameter <dbl>, measurementHeight <dbl>, height <dbl>, uid_map <chr>,
## #   pointID <dbl>, stemDistance <dbl>, stemAzimuth <dbl>, taxonID <chr>,
## #   scientificName <chr>, taxonRank <chr>, uid_ppl <chr>, plotType <chr>,
## #   nlcdClass <chr>, decimalLatitude <dbl>, decimalLongitude <dbl>,
## #   geodeticDatum <chr>, easting <dbl>, northing <dbl>, utmZone <chr>,
## #   elevation <dbl>, elevationUncertainty <dbl>, stemLat <dbl>, stemLon <dbl>
…
Let’s just get rid of it and instead, save our analytic data as a csv in our data directory.

Frist lets create a data directory (you can do this in the console)

fs::dir_create("data")

Now were ready to write or data out. Before we do so, I will add one last touch. Before I do so, I would like to get rid of a pet hate of mine, and thats camelCase variable names!

I use a handy function in package janitor, !

individual %>%
    janitor::clean_names()

## # A tibble: 14,961 x 32
##    uid   named_location date       event_id domain_id site_id plot_id
##    <chr> <chr>          <date>     <chr>    <chr>     <chr>   <chr>  
##  1 a36a… BART_037.base… 2015-08-26 vst_BAR… D01       BART    BART_0…
##  2 68dc… BART_037.base… 2015-08-26 vst_BAR… D01       BART    BART_0…
##  3 a895… BART_044.base… 2015-08-26 vst_BAR… D01       BART    BART_0…
##  4 eb34… BART_044.base… 2015-08-26 vst_BAR… D01       BART    BART_0…
##  5 2a44… BART_044.base… 2015-08-26 vst_BAR… D01       BART    BART_0…
##  6 e485… BART_044.base… 2015-08-26 vst_BAR… D01       BART    BART_0…
##  7 280c… BART_044.base… 2015-08-26 vst_BAR… D01       BART    BART_0…
##  8 0e50… BART_044.base… 2015-08-26 vst_BAR… D01       BART    BART_0…
##  9 4918… BART_044.base… 2015-08-26 vst_BAR… D01       BART    BART_0…
## 10 ef16… BART_044.base… 2015-08-26 vst_BAR… D01       BART    BART_0…
## # … with 14,951 more rows, and 25 more variables: individual_id <chr>,
## #   growth_form <chr>, stem_diameter <dbl>, measurement_height <dbl>,
## #   height <dbl>, uid_map <chr>, point_id <dbl>, stem_distance <dbl>,
## #   stem_azimuth <dbl>, taxon_id <chr>, scientific_name <chr>,
## #   taxon_rank <chr>, uid_ppl <chr>, plot_type <chr>, nlcd_class <chr>,
## #   decimal_latitude <dbl>, decimal_longitude <dbl>, geodetic_datum <chr>,
## #   easting <dbl>, northing <dbl>, utm_zone <chr>, elevation <dbl>,
## #   elevation_uncertainty <dbl>, stem_lat <dbl>, stem_lon <dbl>
…
